introduktion_r
…
[1] "koen"                  "tid"                   "befolkningen_1_januar"

Omkodning af variable

Man har ofte behov for at omkode/recode sine variable til færre/andre kategorier eller typer. Ofte vil vi gerne omkode mange variable på én gang. Derfor har pakken dplyr (under tidyverse) introduceret funktionen mutate().

Logikken er: mutate(df, ny_variabel = gammel_variabel)

Omkodning af variable

Lad os prøve at se på nogle eksempler på et befolkningsdatasæt fra European Social Survey…

# A tibble: 13,799 × 5
   koen   land  alder udd                         net_indkomst
   <fct>  <chr> <dbl> <ord>                              <dbl>
 1 Kvinde DE       26 Ungdoms-/erhvervsuddannelse        20000
 2 Kvinde DE       65 Ungdoms-/erhvervsuddannelse          530
 3 Kvinde DE       74 Mellemlang videregående              350
 4 Mand   DE       64 Ungdoms-/erhvervsuddannelse         2500
 5 Kvinde DE       54 <NA>                                4000
 6 Kvinde DE       20 Ungdoms-/erhvervsuddannelse          570
 7 Kvinde DE       71 Ungdoms-/erhvervsuddannelse         2100
 8 Mand   DE       41 Mellemlang videregående             1150
 9 Mand   DE       62 Mellemlang videregående              500
10 Mand   DE       65 Ungdoms-/erhvervsuddannelse         1000
# ℹ 13,789 more rows

Omkodning af variable

Her kan vi f.eks. tilføje en variabel til vores datasæt, der måler alder kvardreret:

(df_ESS <- df_ESS %>% mutate(alder2 = alder^2))

# A tibble: 13,799 × 6
   koen   land  alder udd                         net_indkomst alder2
   <fct>  <chr> <dbl> <ord>                              <dbl>  <dbl>
 1 Kvinde DE       26 Ungdoms-/erhvervsuddannelse        20000    676
 2 Kvinde DE       65 Ungdoms-/erhvervsuddannelse          530   4225
 3 Kvinde DE       74 Mellemlang videregående              350   5476
 4 Mand   DE       64 Ungdoms-/erhvervsuddannelse         2500   4096
 5 Kvinde DE       54 <NA>                                4000   2916
 6 Kvinde DE       20 Ungdoms-/erhvervsuddannelse          570    400
 7 Kvinde DE       71 Ungdoms-/erhvervsuddannelse         2100   5041
 8 Mand   DE       41 Mellemlang videregående             1150   1681
 9 Mand   DE       62 Mellemlang videregående              500   3844
10 Mand   DE       65 Ungdoms-/erhvervsuddannelse         1000   4225
# ℹ 13,789 more rows
…
fct_recode() : funktion til specifikt at omkode factor variable

Omkodning af variable

Man bruger mutate til at omkode sine variable i kombination med if_else, hvis de kun skal omkodes på baggrund af én betingelse.

Den kan f.eks. bruges hvis man vil lave en dikotom variabel, der måler, om man er over 18 år gammel og dermed myndig:

(df_ESS <- df_ESS %>%
  mutate(myndig = if_else(alder > 18,
                          "Myndig", # Kategori vis den binære betingelse er sand.
                          "Ikke myndig"))) # Kategori hvis den binære betingelse ikke er sand.

# A tibble: 13,799 × 7
   koen   land  alder udd                         net_indkomst alder2 myndig
   <fct>  <chr> <dbl> <ord>                              <dbl>  <dbl> <chr> 
 1 Kvinde DE       26 Ungdoms-/erhvervsuddannelse        20000    676 Myndig
 2 Kvinde DE       65 Ungdoms-/erhvervsuddannelse          530   4225 Myndig
 3 Kvinde DE       74 Mellemlang videregående              350   5476 Myndig
 4 Mand   DE       64 Ungdoms-/erhvervsuddannelse         2500   4096 Myndig
 5 Kvinde DE       54 <NA>                                4000   2916 Myndig
 6 Kvinde DE       20 Ungdoms-/erhvervsuddannelse          570    400 Myndig
 7 Kvinde DE       71 Ungdoms-/erhvervsuddannelse         2100   5041 Myndig
 8 Mand   DE       41 Mellemlang videregående             1150   1681 Myndig
 9 Mand   DE       62 Mellemlang videregående              500   3844 Myndig
10 Mand   DE       65 Ungdoms-/erhvervsuddannelse         1000   4225 Myndig
# ℹ 13,789 more rows

Omkodning af variable

Hvis man skal opsætte mange betingelser i sin omkodning bruger man funktionen case_when. case_when bruges også sammen med logiske operatorer, men kan også bruges med funktioner, som i eksemplet nedenfor, hvor funktionen between()er anvendt til at lave en variabel med alderskategorier:

(df_ESS <- df_ESS %>%
  mutate(alder_kategori = case_when(
    between(alder, 15, 35) ~ "15-35 år", 
    between(alder, 36, 55) ~ "36-55år ",
    between(alder, 56, 75) ~ "56-75 år",
    alder > 75 ~ "75 +"
  )))

# A tibble: 13,799 × 8
   koen   land  alder udd              net_indkomst alder2 myndig alder_kategori
   <fct>  <chr> <dbl> <ord>                   <dbl>  <dbl> <chr>  <chr>         
 1 Kvinde DE       26 Ungdoms-/erhver…        20000    676 Myndig "15-35 år"    
 2 Kvinde DE       65 Ungdoms-/erhver…          530   4225 Myndig "56-75 år"    
 3 Kvinde DE       74 Mellemlang vide…          350   5476 Myndig "56-75 år"    
 4 Mand   DE       64 Ungdoms-/erhver…         2500   4096 Myndig "56-75 år"    
 5 Kvinde DE       54 <NA>                     4000   2916 Myndig "36-55år "    
 6 Kvinde DE       20 Ungdoms-/erhver…          570    400 Myndig "15-35 år"    
 7 Kvinde DE       71 Ungdoms-/erhver…         2100   5041 Myndig "56-75 år"    
 8 Mand   DE       41 Mellemlang vide…         1150   1681 Myndig "36-55år "    
 9 Mand   DE       62 Mellemlang vide…          500   3844 Myndig "56-75 år"    
10 Mand   DE       65 Ungdoms-/erhver…         1000   4225 Myndig "56-75 år"    
# ℹ 13,789 more rows

Omkodning af variable

Hvis man gerne vil omkode factor variabel kan man bruge funkstionen fct_recode(). Denne funktion kan også bruges i kombination med mutate.

Logikken er: fct_recode(variabel, ny_kategori = gammel_kategori)

F.eks. kan lave en ny variabel for køn, oversat til engelsk med engelske kategorier:

(df_ESS <- df_ESS %>% mutate(gender = fct_recode(koen, "Male" = "Mand", "Female" = "Kvinde")))

# A tibble: 13,799 × 9
   koen   land  alder udd       net_indkomst alder2 myndig alder_kategori gender
   <fct>  <chr> <dbl> <ord>            <dbl>  <dbl> <chr>  <chr>          <fct> 
 1 Kvinde DE       26 Ungdoms-…        20000    676 Myndig "15-35 år"     Female
 2 Kvinde DE       65 Ungdoms-…          530   4225 Myndig "56-75 år"     Female
 3 Kvinde DE       74 Mellemla…          350   5476 Myndig "56-75 år"     Female
 4 Mand   DE       64 Ungdoms-…         2500   4096 Myndig "56-75 år"     Male  
 5 Kvinde DE       54 <NA>              4000   2916 Myndig "36-55år "     Female
 6 Kvinde DE       20 Ungdoms-…          570    400 Myndig "15-35 år"     Female
 7 Kvinde DE       71 Ungdoms-…         2100   5041 Myndig "56-75 år"     Female
 8 Mand   DE       41 Mellemla…         1150   1681 Myndig "36-55år "     Male  
 9 Mand   DE       62 Mellemla…          500   3844 Myndig "56-75 år"     Male  
10 Mand   DE       65 Ungdoms-…         1000   4225 Myndig "56-75 år"     Male  
# ℹ 13,789 more rows
…
[1] "koen"         "net_indkomst"

Subsetting

Select() funktionen bruges til at udvælge kolonner/variable i datasættet. Hvis man f.eks. kun er interesseret i variablene koen og net_indkomst, kan man pipe sit dataset over i select():

df_ESS %>% select(koen, net_indkomst) %>% names()

[1] "koen"         "net_indkomst"

På den måde kan man også gemme et nyt datasæt, der kun indeholder de ønskede variable:

(ny_df <- df_ESS %>% select(koen, net_indkomst))

# A tibble: 13,799 × 2
   koen   net_indkomst
   <fct>         <dbl>
 1 Kvinde        20000
 2 Kvinde          530
 3 Kvinde          350
 4 Mand           2500
 5 Kvinde         4000
 6 Kvinde          570
 7 Kvinde         2100
 8 Mand           1150
 9 Mand            500
10 Mand           1000
# ℹ 13,789 more rows

Subsetting

Mens select() uvælger kolonner/variable, kan man bruge filter() til at vælge rækker/observationer på baggrund af specifikationer.

Hvis man f.eks. kun er interesseret i resultater for kvinder i sit datasæt, kan man pipe sit dataset over i select() og dermed kun beholde observationer, der har værdien = “kvinde” på variablen “koen”:

(kvinde_df <- df_ESS %>% filter(koen=="Kvinde"))

# A tibble: 7,069 × 9
   koen   land  alder udd       net_indkomst alder2 myndig alder_kategori gender
   <fct>  <chr> <dbl> <ord>            <dbl>  <dbl> <chr>  <chr>          <fct> 
 1 Kvinde DE       26 Ungdoms-…        20000    676 Myndig "15-35 år"     Female
 2 Kvinde DE       65 Ungdoms-…          530   4225 Myndig "56-75 år"     Female
 3 Kvinde DE       74 Mellemla…          350   5476 Myndig "56-75 år"     Female
 4 Kvinde DE       54 <NA>              4000   2916 Myndig "36-55år "     Female
 5 Kvinde DE       20 Ungdoms-…          570    400 Myndig "15-35 år"     Female
 6 Kvinde DE       71 Ungdoms-…         2100   5041 Myndig "56-75 år"     Female
 7 Kvinde DE       67 <NA>                NA   4489 Myndig "56-75 år"     Female
 8 Kvinde DE       47 Ungdoms-…         1500   2209 Myndig "36-55år "     Female
 9 Kvinde DE       60 Lang vid…            0   3600 Myndig "56-75 år"     Female
10 Kvinde DE       64 Mellemla…         1600   4096 Myndig "56-75 år"     Female
# ℹ 7,059 more rows
…
